C:\Users\Tipula\eclipse-workspace\PracticaMVC\src\main\java\es\unex\mydai\dao\GenericDAO.java
C:\Users\Tipula\eclipse-workspace\PracticaMVC\src\main\java\es\unex\mydai\dao\GrupoDAO.java
C:\Users\Tipula\eclipse-workspace\PracticaMVC\src\main\java\es\unex\mydai\service\UsersService.java
C:\Users\Tipula\eclipse-workspace\PracticaMVC\src\main\java\es\unex\mydai\service\HashtagService.java
C:\Users\Tipula\eclipse-workspace\PracticaMVC\src\main\java\es\unex\mydai\dao\GrupoDAOImpl.java
C:\Users\Tipula\eclipse-workspace\PracticaMVC\src\main\java\es\unex\mydai\dao\HashtagDAOImpl.java
C:\Users\Tipula\eclipse-workspace\PracticaMVC\src\main\java\es\unex\mydai\service\GrupoService.java
C:\Users\Tipula\eclipse-workspace\PracticaMVC\src\main\java\es\unex\mydai\persistence\vo\Hashtags.java
C:\Users\Tipula\eclipse-workspace\PracticaMVC\src\main\java\es\unex\mydai\service\VisitaServiceImpl.java
C:\Users\Tipula\eclipse-workspace\PracticaMVC\src\main\java\es\unex\mydai\controller\HashtagController.java
C:\Users\Tipula\eclipse-workspace\PracticaMVC\src\main\java\es\unex\mydai\dao\VisitasDAO.java
C:\Users\Tipula\eclipse-workspace\PracticaMVC\src\main\java\es\unex\mydai\persistence\vo\Visitas.java
C:\Users\Tipula\eclipse-workspace\PracticaMVC\src\main\java\es\unex\mydai\service\GrupoServiceImpl.java
C:\Users\Tipula\eclipse-workspace\PracticaMVC\src\main\java\es\unex\mydai\service\VisitaService.java
C:\Users\Tipula\eclipse-workspace\PracticaMVC\src\main\java\es\unex\mydai\persistence\vo\Grupo.java
C:\Users\Tipula\eclipse-workspace\PracticaMVC\src\main\java\es\unex\mydai\service\MensajesServiceImpl.java
C:\Users\Tipula\eclipse-workspace\PracticaMVC\src\main\java\es\unex\mydai\service\HashtagServiceImpl.java
C:\Users\Tipula\eclipse-workspace\PracticaMVC\src\main\java\es\unex\mydai\dao\HashtagDAO.java
C:\Users\Tipula\eclipse-workspace\PracticaMVC\src\main\java\es\unex\mydai\dao\VisitasDAOImpl.java
C:\Users\Tipula\eclipse-workspace\PracticaMVC\src\main\java\es\unex\mydai\dao\MensajesDAOImpl.java
C:\Users\Tipula\eclipse-workspace\PracticaMVC\src\main\java\es\unex\mydai\service\UsersServiceImpl.java
C:\Users\Tipula\eclipse-workspace\PracticaMVC\src\main\java\es\unex\mydai\persistence\vo\Mensajes.java
C:\Users\Tipula\eclipse-workspace\PracticaMVC\src\main\java\es\unex\mydai\controller\VisitaController.java
C:\Users\Tipula\eclipse-workspace\PracticaMVC\src\main\java\es\unex\mydai\controller\UsersController.java
C:\Users\Tipula\eclipse-workspace\PracticaMVC\src\main\java\es\unex\mydai\dao\MensajesDAO.java
C:\Users\Tipula\eclipse-workspace\PracticaMVC\src\main\java\es\unex\mydai\controller\GrupoController.java
C:\Users\Tipula\eclipse-workspace\PracticaMVC\src\main\java\es\unex\mydai\persistence\vo\Users.java
C:\Users\Tipula\eclipse-workspace\PracticaMVC\src\main\java\es\unex\mydai\dao\UsersDAO.java
C:\Users\Tipula\eclipse-workspace\PracticaMVC\src\main\java\es\unex\mydai\service\MensajesService.java
C:\Users\Tipula\eclipse-workspace\PracticaMVC\src\main\java\es\unex\mydai\dao\GenericDAOImpl.java
C:\Users\Tipula\eclipse-workspace\PracticaMVC\src\main\java\es\unex\mydai\dao\UsersDAOImpl.java
